﻿{
  //#region global
  "msg.SelectItem": "انتخاب کنید...",
  "msg.success": "پیام",
  "msg.error": "خطا",
  "msg.invalid-request": "درخواست داده شده نادرست است.",
  "msg.not-found": "آیتمی با این مشخصات وجود ندارد",
  "msg.list-error": "در بازیابی اطلاعات اشکالی وجود دارد.",
  "msg.save-error": "امکان ذخیره وجود ندارد. لطفا بعدا دوباره تلاش نمایید.",
  "msg.save-succeed": "عملیات با موفقیت انجام شد",
  "msg.delete-error": "امکان حذف وجود ندارد. لطفا بعدا دوباره تلاش نمایید.",


  "msg.required": "{0} اجباری است",
  "msg.invalidValue": "فیلد {0} نامعتبر است",
  "msg.invalidLength.num": "حداکثر طول فیلد {0} , {1} رقم است",
  "msg.invalidLength.str": "حداکثر طول فیلد {0} , {1} کاراکتر است",


  "msg.invalidMaxLength.num": "حداکثر طول فیلد {0} , {1} رقم است",
  "msg.invalidMaxLength.str": "حداکثر طول فیلد {0} , {1} کاراکتر است",
  "msg.invalidMinLength.num": "حداقل طول فیلد {0} , {1} رقم است",
  "msg.invalidMinLength.str": "حداقل طول فیلد {0} , {1} کاراکتر است",
  "msg.invalidMinMaxLength.str": "فیلد {0} باید حداقل {1} و حداکثر {2} کاراکتر داشته باشد",


  "msg.Equal": "فیلد {0} و فیلد {1} باید با یکدیگر برابر باشند",
  "msg.NotEqual": "فیلد {0} و فیلد {1} نباید با یکدیگر برابر باشند",
  "msg.GreaterThan": "فیلد {0} باید بزرگتر از فیلد {1}  باشد",
  "msg.GreaterEqualThan": "فیلد {0} باید بزرگتر مساوی فیلد {1}  باشد",
  "msg.LessThan": "فیلد {0} باید کمتر از فیلد {1}  باشد",
  "msg.LessEqualThan": "فیلد {0} باید کمتر مساوی فیلد {1}  باشد",

  "msg.GreaterThanValue": "مقدار فیلد {0} باید بزرگتر از {1}  باشد",
  "msg.GreaterEqualThanValue": "مقدار فیلد {0} باید بزرگتر مساوی {1}  باشد",
  "msg.LessThanValue": "مقدار فیلد {0} باید کمتر از {1}  باشد",
  "msg.LessEqualThanValue": "مقدار فیلد {0} باید کمتر مساوی {1}  باشد",

  "title.SoftwareName": "CallerId",

  //#endregion

  //#region user-changePassword

  "user.changePassword.field.OldPassword": "رمز عبور فعلی",
  "user.changePassword.field.NewPassword": "رمز عبور جدید",
  "user.changePassword.field.ConfirmNewPassword": "تکرار رمز عبور جدید",

  //#endregion

  //#region user-user
  "user.field.Username": "نام کاربری",
  "user.field.PhoneNumber": "شماره موبایل",
  "user.field.LastName": "نام خانوادگی",
  "user.field.FirstName": "نام",
  "user.field.Email": "پست الکترونیک",
  "user.field.Password": "رمز عبور ",
  "user.field.Role": "نقش کاربر",
  "user.field.ConfirmPassword": "تکرار رمز عبور ",
  "user.msg.DuplicateEmail": "پست الکترونیکی تکراری می باشد",
  "user.msg.InvalidUserName": "نام کاربری نامعتبر است",
  "user.msg.PasswordMismatch": "رمز عبور فعلی نامعتبر است",
  "user.msg.PasswordTooShort": "تعداد کاراکترهای رمز عبور کم است",
  "user.msg.DuplicateUserName": "نام کاربری تکراری است",
  "user.msg.DuplicateInternalCode": "کد داخلی تکراری است",
  "user.msg.UserNotFound": "کاربر مورد نظر یافت نشد",
  "user.changePassword.PasswordMatch": "رمزهای وارد شده یکسان نیستند",
  //#endregion

  //#region login
  "login.field.username": "نام کاربری",
  "login.field.password": "رمز عبور",
  "login.field.remember-me": "مرا به خاطر داشته باش.",

  "login.msg.login-failed": "نام کاربری یا رمز عبور نادرست است",
  "login.msg.login-invalid": "اطلاعات ورودی نادرست است.",
  "login.msg.inactiveUser": "حساب کاربری شما غیر فعال شده است",

  "login.title.page": "ورود به نرم افزار",
  //#endregion

  //#region layout
  "menu.category": "دسته بندی",
  "menu.logout": "خروج",
  "menu.home": "صفحه اصلی",
  //#endregion


  //#region enum
  "UserRoleNames.Admin": "مدیر",
  "UserRoleNames.User": "کاربر"
  //#endregion



}
